EESchema Schematic File Version 4
LIBS:pcb-cache
EELAYER 29 0
EELAYER END
$Descr A4 8268 11693 portrait
encoding utf-8
Sheet 1 1
Title "Pinout PCB AstreLoon"
Date "30/01/2020"
Rev "1"
Comp "ASTRE"
Comment1 ""
Comment2 ""
Comment3 ""
Comment4 ""
$EndDescr
Text GLabel 3050 4000 0    50   Input ~ 0
GND
Text GLabel 3050 3900 0    50   Input ~ 0
3.3V
$Comp
L Connector:Conn_01x16_Female J2
U 1 1 5E2A7235
P 4850 4700
F 0 "J2" H 4742 3675 50  0000 C CNN
F 1 "Conn_01x16_Female" H 4742 3766 50  0000 C CNN
F 2 "Connector_PinHeader_2.54mm:PinHeader_1x16_P2.54mm_Vertical" H 4850 4700 50  0001 C CNN
F 3 "~" H 4850 4700 50  0001 C CNN
	1    4850 4700
	-1   0    0    1   
$EndComp
$Comp
L Connector:Conn_01x16_Female J1
U 1 1 5E2A5DC5
P 3550 4600
F 0 "J1" H 3578 4576 50  0000 L CNN
F 1 "Conn_01x16_Female" H 3578 4485 50  0000 L CNN
F 2 "Connector_PinHeader_2.54mm:PinHeader_1x16_P2.54mm_Vertical" H 3550 4600 50  0001 C CNN
F 3 "~" H 3550 4600 50  0001 C CNN
	1    3550 4600
	1    0    0    -1  
$EndComp
Text GLabel 3050 4100 0    50   Input ~ 0
5V
Text GLabel 3050 4200 0    50   Input ~ 0
GND
Text GLabel 3050 4300 0    50   Input ~ 0
TX0
Text GLabel 3050 4400 0    50   Input ~ 0
RXI
Text GLabel 3050 4500 0    50   Input ~ 0
RST
Text GLabel 3050 4600 0    50   Input ~ 0
GND
Text GLabel 3050 4700 0    50   Input ~ 0
D2
Text GLabel 3050 4800 0    50   Input ~ 0
D3
Text GLabel 3050 4900 0    50   Input ~ 0
D4
Text GLabel 3050 5000 0    50   Input ~ 0
D5
Text GLabel 3050 5100 0    50   Input ~ 0
D6
Text GLabel 3050 5200 0    50   Input ~ 0
D7
Text GLabel 3050 5300 0    50   Input ~ 0
D8
Text GLabel 3050 5400 0    50   Input ~ 0
D9
Text GLabel 5400 3900 2    50   Input ~ 0
RAW
Text GLabel 5400 4100 2    50   Input ~ 0
RST
Text GLabel 5400 4000 2    50   Input ~ 0
GND
Text GLabel 5400 4200 2    50   Input ~ 0
VCC
Text GLabel 5400 4300 2    50   Input ~ 0
A3
Text GLabel 5400 4400 2    50   Input ~ 0
A2
Text GLabel 5400 4500 2    50   Input ~ 0
A1
Text GLabel 5400 4600 2    50   Input ~ 0
A0
Text GLabel 5400 4700 2    50   Input ~ 0
SCK
Text GLabel 5400 4800 2    50   Input ~ 0
MISO
Text GLabel 5400 4900 2    50   Input ~ 0
MOSI
Text GLabel 5400 5000 2    50   Input ~ 0
SS
Text GLabel 5400 5100 2    50   Input ~ 0
SCL
Text GLabel 5400 5200 2    50   Input ~ 0
SDA
Text GLabel 5400 5300 2    50   Input ~ 0
A7
Text GLabel 5400 5400 2    50   Input ~ 0
A6
Wire Wire Line
	3050 3900 3350 3900
Wire Wire Line
	3050 4000 3350 4000
Wire Wire Line
	3050 4100 3350 4100
Wire Wire Line
	3050 4200 3350 4200
Wire Wire Line
	3050 4300 3350 4300
Wire Wire Line
	3050 4400 3350 4400
Wire Wire Line
	3050 4500 3350 4500
Wire Wire Line
	3050 4600 3350 4600
Wire Wire Line
	3050 4700 3350 4700
Wire Wire Line
	3050 4800 3350 4800
Wire Wire Line
	3050 4900 3350 4900
Wire Wire Line
	3050 5000 3350 5000
Wire Wire Line
	3350 5100 3050 5100
Wire Wire Line
	3050 5200 3350 5200
Wire Wire Line
	3050 5300 3350 5300
Wire Wire Line
	3050 5400 3350 5400
Wire Wire Line
	5050 5400 5400 5400
Wire Wire Line
	5050 5300 5400 5300
Wire Wire Line
	5050 5200 5400 5200
Wire Wire Line
	5400 5100 5050 5100
Wire Wire Line
	5050 5000 5400 5000
Wire Wire Line
	5050 4900 5400 4900
Wire Wire Line
	5050 4800 5400 4800
Wire Wire Line
	5050 4700 5400 4700
Wire Wire Line
	5400 4600 5050 4600
Wire Wire Line
	5050 4500 5400 4500
Wire Wire Line
	5050 4400 5400 4400
Wire Wire Line
	5400 4300 5050 4300
Wire Wire Line
	5050 4200 5400 4200
Wire Wire Line
	5400 4100 5050 4100
Wire Wire Line
	5050 4000 5400 4000
Wire Wire Line
	5400 3900 5050 3900
Text Notes 3400 2700 0    315  ~ 63
Pinout
$EndSCHEMATC
