(module LOGO (layer F.Cu)
  (at 0 0)
 (fp_text reference "G***" (at 0 0) (layer F.SilkS) hide
  (effects (font (thickness 0.3)))
  )
  (fp_text value "LOGO" (at 0.75 0) (layer F.SilkS) hide
  (effects (font (thickness 0.3)))
  )
  (fp_poly (pts (xy -1.763546 -0.248013) (xy -1.768336 -0.220886) (xy -1.792621 -0.159106) (xy -1.832104 -0.072906) (xy -1.865253 -0.005927) (xy -1.940976 0.166226) (xy -1.977478 0.314059) (xy -1.972818 0.442837)
     (xy -1.925057 0.557820) (xy -1.832252 0.664272) (xy -1.692463 0.767454) (xy -1.550027 0.848809) (xy -1.383724 0.936199) (xy -1.344578 0.876300) (xy -0.838200 0.876300) (xy -0.824485 0.910101)
     (xy -0.812800 0.914400) (xy 0.000000 0.914400) (xy 0.009293 0.935307) (xy 0.016933 0.931333) (xy 0.019973 0.901189) (xy 0.016933 0.897466) (xy 0.001833 0.900953) (xy 0.000000 0.914400)
     (xy -0.812800 0.914400) (xy -0.790266 0.893827) (xy -0.787400 0.876300) (xy -0.801116 0.842498) (xy -0.812800 0.838200) (xy -0.835335 0.858772) (xy -0.838200 0.876300) (xy -1.344578 0.876300)
     (xy -1.330951 0.855449) (xy -1.301269 0.807650) (xy -1.251354 0.724664) (xy -1.186422 0.615272) (xy -1.111687 0.488254) (xy -1.105603 0.477837) (xy -0.400580 0.477837) (xy -0.389525 0.503747)
     (xy -0.370417 0.508000) (xy -0.335428 0.487549) (xy -0.330200 0.467783) (xy -0.344868 0.440227) (xy 0.787417 0.440227) (xy 0.798810 0.478727) (xy 0.828908 0.546514) (xy 0.871605 0.632317)
     (xy 0.920796 0.724866) (xy 0.970377 0.812892) (xy 1.014243 0.885123) (xy 1.046288 0.930290) (xy 1.058027 0.939800) (xy 1.084369 0.927868) (xy 1.143004 0.896209) (xy 1.222542 0.851024)
     (xy 1.244500 0.838258) (xy 1.397810 0.742934) (xy 1.509140 0.658088) (xy 1.584199 0.576688) (xy 1.628694 0.491700) (xy 1.648332 0.396090) (xy 1.650611 0.337811) (xy 1.649156 0.260296)
     (xy 1.640268 0.207612) (xy 1.616287 0.176851) (xy 1.569556 0.165104) (xy 1.492417 0.169464) (xy 1.377212 0.187022) (xy 1.292221 0.201708) (xy 1.120912 0.232349) (xy 0.993382 0.258250)
     (xy 0.903207 0.282446) (xy 0.843965 0.307973) (xy 0.809231 0.337865) (xy 0.792583 0.375157) (xy 0.787598 0.422884) (xy 0.787417 0.440227) (xy -0.344868 0.440227) (xy -0.345007 0.439967)
     (xy -0.375472 0.444403) (xy -0.400580 0.477837) (xy -1.105603 0.477837) (xy -1.063000 0.404900) (xy -0.736600 0.404900) (xy -0.718162 0.430766) (xy -0.711200 0.431800) (xy -0.686461 0.423133)
     (xy -0.685800 0.420599) (xy -0.703599 0.398913) (xy -0.711200 0.393700) (xy -0.734606 0.395713) (xy -0.736600 0.404900) (xy -1.063000 0.404900) (xy -1.041621 0.368300) (xy -0.966619 0.239559)
     (xy -0.900824 0.126832) (xy -0.848329 0.037115) (xy -0.813227 -0.022598) (xy -0.799630 -0.045286) (xy -0.774189 -0.043249) (xy -0.708551 -0.032540) (xy -0.612253 -0.014842) (xy -0.494831 0.008157)
     (xy -0.477062 0.011742) (xy -0.091877 0.073076) (xy 0.318784 0.107994) (xy 0.736321 0.115344) (xy 1.012650 0.104140) (xy 1.183391 0.091137) (xy 1.361035 0.074505) (xy 1.535558 0.055476)
     (xy 1.696935 0.035283) (xy 1.835144 0.015157) (xy 1.940160 -0.003669) (xy 1.990847 -0.016113) (xy 2.018986 -0.020345) (xy 2.029684 -0.002053) (xy 2.026194 0.049949) (xy 2.020890 0.087146)
     (xy 1.979975 0.268075) (xy 1.911127 0.470330) (xy 1.820980 0.678009) (xy 1.716168 0.875210) (xy 1.645504 0.987038) (xy 1.493203 1.176954) (xy 1.303192 1.360723) (xy 1.088391 1.528029)
     (xy 0.861718 1.668553) (xy 0.688123 1.751641) (xy 0.467506 1.826227) (xy 0.223066 1.880960) (xy -0.028707 1.913696) (xy -0.271318 1.922286) (xy -0.487721 1.904673) (xy -0.812417 1.828099)
     (xy -1.119904 1.705576) (xy -1.170279 1.676400) (xy 0.381000 1.676400) (xy 0.401572 1.698934) (xy 0.419100 1.701800) (xy 0.452901 1.688084) (xy 0.457200 1.676400) (xy 0.436627 1.653865)
     (xy 0.419100 1.651000) (xy 0.385298 1.664715) (xy 0.381000 1.676400) (xy -1.170279 1.676400) (xy -1.405282 1.540292) (xy -1.663655 1.335437) (xy -1.812519 1.176866) (xy -0.042334 1.176866)
     (xy -0.038847 1.191966) (xy -0.025400 1.193800) (xy -0.004493 1.184506) (xy -0.008467 1.176866) (xy -0.038611 1.173826) (xy -0.042334 1.176866) (xy -1.812519 1.176866) (xy -1.890125 1.094200)
     (xy -1.901298 1.078747) (xy 0.696465 1.078747) (xy 0.698500 1.092200) (xy 0.720226 1.116404) (xy 0.723900 1.117600) (xy 0.744094 1.099884) (xy 0.749300 1.092200) (xy 0.743268 1.070681)
     (xy 0.723900 1.066800) (xy 0.696465 1.078747) (xy -1.901298 1.078747) (xy -1.922182 1.049866) (xy -0.016934 1.049866) (xy -0.013447 1.064966) (xy 0.000000 1.066800) (xy 0.020907 1.057506)
     (xy 0.016933 1.049866) (xy -0.013211 1.046826) (xy -0.016934 1.049866) (xy -1.922182 1.049866) (xy -2.030378 0.900238) (xy -2.141878 0.702056) (xy -2.208276 0.521835) (xy -2.213454 0.482600)
     (xy -2.082800 0.482600) (xy -2.073507 0.503507) (xy -2.065867 0.499533) (xy -2.062827 0.469389) (xy -2.065867 0.465666) (xy -2.080967 0.469153) (xy -2.082800 0.482600) (xy -2.213454 0.482600)
     (xy -2.230231 0.355483) (xy -2.208404 0.198906) (xy -2.162242 0.082554) (xy -2.114093 0.008526) (xy -2.047158 -0.068640) (xy -1.970753 -0.141221) (xy -1.894189 -0.201496) (xy -1.826781 -0.241742)
     (xy -1.777842 -0.254238) (xy -1.763546 -0.248013) )(layer F.SilkS) (width  0.010000)
  )
  (fp_poly (pts (xy 0.041738 -2.497380) (xy 0.302025 -2.456283) (xy 0.564712 -2.380796) (xy 0.822259 -2.272065) (xy 1.046495 -2.144748) (xy 1.306918 -1.946688) (xy 1.532235 -1.713757) (xy 1.720261 -1.449771)
     (xy 1.868813 -1.158545) (xy 1.975705 -0.843897) (xy 2.038753 -0.509643) (xy 2.049849 -0.391707) (xy 2.064387 -0.185704) (xy 1.927543 -0.169273) (xy 1.858794 -0.164429) (xy 1.750321 -0.160753)
     (xy 1.613189 -0.158249) (xy 1.458461 -0.156922) (xy 1.297200 -0.156773) (xy 1.140471 -0.157809) (xy 0.999337 -0.160031) (xy 0.884862 -0.163443) (xy 0.808108 -0.168051) (xy 0.800100 -0.168895)
     (xy 0.741240 -0.175679) (xy 0.647941 -0.186346) (xy 0.536238 -0.199066) (xy 0.482600 -0.205157) (xy 0.336255 -0.224759) (xy 0.179287 -0.250900) (xy 0.019551 -0.281698) (xy -0.135096 -0.315271)
     (xy -0.276800 -0.349738) (xy -0.397703 -0.383217) (xy -0.489950 -0.413826) (xy -0.545683 -0.439683) (xy -0.558800 -0.454608) (xy -0.545903 -0.486363) (xy -0.511225 -0.550796) (xy -0.460790 -0.638069)
     (xy -0.400623 -0.738346) (xy -0.336745 -0.841786) (xy -0.275182 -0.938554) (xy -0.221955 -1.018811) (xy -0.183089 -1.072719) (xy -0.173188 -1.084410) (xy -0.131998 -1.122460) (xy -0.102692 -1.124707)
     (xy -0.074564 -1.103419) (xy -0.044443 -1.052258) (xy -0.043488 -1.015821) (xy -0.036624 -0.970070) (xy -0.006070 -0.894203) (xy 0.041887 -0.799115) (xy 0.100960 -0.695704) (xy 0.164862 -0.594864)
     (xy 0.227306 -0.507493) (xy 0.282007 -0.444486) (xy 0.290907 -0.436255) (xy 0.384307 -0.375999) (xy 0.494747 -0.335483) (xy 0.501589 -0.333948) (xy 0.581148 -0.320248) (xy 0.689500 -0.306135)
     (xy 0.815713 -0.292514) (xy 0.948854 -0.280288) (xy 1.077992 -0.270359) (xy 1.192193 -0.263631) (xy 1.280524 -0.261008) (xy 1.332054 -0.263392) (xy 1.337843 -0.264852) (xy 1.354820 -0.280184)
     (xy 1.351158 -0.312464) (xy 1.324226 -0.371536) (xy 1.319088 -0.381000) (xy 1.930400 -0.381000) (xy 1.939693 -0.360093) (xy 1.947333 -0.364067) (xy 1.950373 -0.394211) (xy 1.947333 -0.397934)
     (xy 1.932233 -0.394447) (xy 1.930400 -0.381000) (xy 1.319088 -0.381000) (xy 1.294896 -0.425560) (xy 1.225655 -0.543794) (xy 1.138392 -0.684013) (xy 1.040045 -0.835904) (xy 0.937546 -0.989157)
     (xy 0.837833 -1.133463) (xy 0.747839 -1.258509) (xy 0.674500 -1.353985) (xy 0.653519 -1.379123) (xy 0.607024 -1.432202) (xy 0.866669 -1.432202) (xy 0.872946 -1.397133) (xy 0.879842 -1.389224)
     (xy 0.911505 -1.384088) (xy 0.937177 -1.409832) (xy 0.939800 -1.423900) (xy 0.919204 -1.445111) (xy 0.901700 -1.447800) (xy 0.866669 -1.432202) (xy 0.607024 -1.432202) (xy 0.590443 -1.451130)
     (xy 0.536013 -1.506587) (xy 0.482501 -1.547656) (xy 0.475717 -1.550900) (xy 1.473200 -1.550900) (xy 1.491638 -1.525034) (xy 1.498600 -1.524000) (xy 1.523339 -1.532667) (xy 1.524000 -1.535201)
     (xy 1.506201 -1.556887) (xy 1.498600 -1.562100) (xy 1.475194 -1.560087) (xy 1.473200 -1.550900) (xy 0.475717 -1.550900) (xy 0.422183 -1.576496) (xy 0.347330 -1.595270) (xy 0.250218 -1.606137)
     (xy 0.123121 -1.611260) (xy -0.041689 -1.612799) (xy -0.182304 -1.612900) (xy -0.371077 -1.613060) (xy -0.517267 -1.611622) (xy -0.629076 -1.605708) (xy -0.714705 -1.592441) (xy -0.782356 -1.568945)
     (xy -0.840229 -1.532341) (xy -0.896526 -1.479753) (xy -0.959448 -1.408304) (xy -1.037197 -1.315116) (xy -1.039720 -1.312103) (xy -1.124445 -1.215938) (xy -1.184047 -1.159481) (xy -1.217255 -1.143880)
     (xy -1.221921 -1.147402) (xy -1.241954 -1.207445) (xy -1.255083 -1.301648) (xy -1.260449 -1.413733) (xy -1.257191 -1.527420) (xy -1.246623 -1.615241) (xy -1.210593 -1.737040) (xy 1.202531 -1.737040)
     (xy 1.206500 -1.727200) (xy 1.229324 -1.702969) (xy 1.233399 -1.701800) (xy 1.244308 -1.721452) (xy 1.244600 -1.727200) (xy 1.225073 -1.751624) (xy 1.217700 -1.752600) (xy 1.202531 -1.737040)
     (xy -1.210593 -1.737040) (xy -1.189209 -1.809324) (xy -0.370354 -1.809324) (xy -0.366960 -1.801231) (xy -0.336124 -1.788647) (xy -0.328031 -1.792041) (xy -0.315447 -1.822877) (xy -0.318841 -1.830970)
     (xy -0.349677 -1.843554) (xy -0.357770 -1.840160) (xy -0.370354 -1.809324) (xy -1.189209 -1.809324) (xy -1.185112 -1.823170) (xy -1.082713 -2.017238) (xy -1.002392 -2.118002) (xy -0.885931 -2.118002)
     (xy -0.879654 -2.082933) (xy -0.872758 -2.075024) (xy -0.841095 -2.069888) (xy -0.815423 -2.095632) (xy -0.812800 -2.109700) (xy -0.833396 -2.130911) (xy -0.850900 -2.133600) (xy -0.885931 -2.118002)
     (xy -1.002392 -2.118002) (xy -0.946485 -2.188138) (xy -0.783488 -2.326561) (xy -0.649286 -2.402842) (xy -0.441460 -2.471807) (xy -0.208604 -2.502937) (xy 0.041738 -2.497380) )(layer F.SilkS) (width  0.010000)
  )
  (fp_poly (pts (xy -2.031316 -0.748947) (xy -1.980061 -0.717855) (xy -1.956049 -0.694254) (xy -1.955800 -0.692733) (xy -1.968893 -0.656844) (xy -2.001950 -0.597590) (xy -2.045644 -0.529027) (xy -2.090646 -0.465211)
     (xy -2.127627 -0.420198) (xy -2.145317 -0.407173) (xy -2.187775 -0.419660) (xy -2.216150 -0.433835) (xy -2.248064 -0.459836) (xy -2.256465 -0.494491) (xy -2.239817 -0.548187) (xy -2.196580 -0.631310)
     (xy -2.183478 -0.654349) (xy -2.106832 -0.787997) (xy -2.031316 -0.748947) )(layer F.SilkS) (width  0.010000)
  )
  (fp_poly (pts (xy -1.845257 -1.092987) (xy -1.790601 -1.050414) (xy -1.759426 -0.988352) (xy -1.759798 -0.917234) (xy -1.799784 -0.847497) (xy -1.808190 -0.839190) (xy -1.877719 -0.794308) (xy -1.946585 -0.797143)
     (xy -2.000949 -0.826941) (xy -2.048407 -0.887305) (xy -2.059120 -0.963484) (xy -2.033696 -1.036866) (xy -1.992743 -1.077923) (xy -1.915326 -1.105635) (xy -1.845257 -1.092987) )(layer F.SilkS) (width  0.010000)
  )
  (fp_poly (pts (xy -1.622564 -1.484616) (xy -1.587185 -1.463411) (xy -1.558318 -1.438228) (xy -1.552553 -1.410229) (xy -1.569403 -1.361723) (xy -1.583523 -1.330061) (xy -1.622929 -1.252745) (xy -1.663776 -1.186488)
     (xy -1.671243 -1.176378) (xy -1.705874 -1.139833) (xy -1.740111 -1.137448) (xy -1.784350 -1.158139) (xy -1.833090 -1.188477) (xy -1.854178 -1.210171) (xy -1.854200 -1.210570) (xy -1.841198 -1.248527)
     (xy -1.808366 -1.309374) (xy -1.764963 -1.378887) (xy -1.720249 -1.442841) (xy -1.683486 -1.487012) (xy -1.666691 -1.498600) (xy -1.622564 -1.484616) )(layer F.SilkS) (width  0.010000)
  )
  (fp_poly (pts (xy 0.058413 -1.270114) (xy 0.029766 -1.182103) (xy -0.013843 -1.129003) (xy -0.048986 -1.117600) (xy -0.074087 -1.137707) (xy -0.076200 -1.150310) (xy -0.060697 -1.188153) (xy -0.021615 -1.245281)
     (xy -0.000665 -1.270960) (xy 0.074871 -1.358900) (xy 0.058413 -1.270114) )(layer F.SilkS) (width  0.010000)
  )
  (fp_poly (pts (xy 0.202908 -1.453549) (xy 0.203200 -1.447800) (xy 0.183673 -1.423377) (xy 0.176300 -1.422400) (xy 0.161131 -1.437961) (xy 0.165100 -1.447800) (xy 0.187924 -1.472032) (xy 0.191999 -1.473200)
     (xy 0.202908 -1.453549) )(layer F.SilkS) (width  0.010000)
  )
)
