%FSLAX45Y45*%
G04 Gerber Fmt 4.5, Leading zero omitted, Abs format (unit mm)*
G04 Created by KiCad (PCBNEW (5.1.2)-2) date 2020-02-03 20:53:39*
%MOMM*%
%LPD*%
G04 APERTURE LIST*
%ADD10C,0.050000*%
%ADD11C,0.100000*%
%ADD12C,0.200000*%
%ADD13C,0.300000*%
G04 APERTURE END LIST*
D10*
X7310000Y-11800000D02*
G75*
G03X7310000Y-11800000I-110000J0D01*
G01*
X11900000Y-11800000D02*
G75*
G03X11900000Y-11800000I-100000J0D01*
G01*
X11900000Y-7200000D02*
G75*
G03X11900000Y-7200000I-100000J0D01*
G01*
X7300000Y-7200000D02*
G75*
G03X7300000Y-7200000I-100000J0D01*
G01*
D11*
X12000000Y-7000000D02*
X12000000Y-12000000D01*
X7000000Y-7000000D02*
X12000000Y-7000000D01*
X7000000Y-12000000D02*
X7000000Y-7000000D01*
X12000000Y-12000000D02*
X7000000Y-12000000D01*
D12*
D13*
X7281428Y-12470714D02*
X7281428Y-12170714D01*
X7352857Y-12170714D01*
X7395714Y-12185000D01*
X7424286Y-12213571D01*
X7438571Y-12242143D01*
X7452857Y-12299286D01*
X7452857Y-12342143D01*
X7438571Y-12399286D01*
X7424286Y-12427857D01*
X7395714Y-12456429D01*
X7352857Y-12470714D01*
X7281428Y-12470714D01*
X7581428Y-12470714D02*
X7581428Y-12270714D01*
X7581428Y-12327857D02*
X7595714Y-12299286D01*
X7610000Y-12285000D01*
X7638571Y-12270714D01*
X7667143Y-12270714D01*
X7767143Y-12470714D02*
X7767143Y-12270714D01*
X7767143Y-12170714D02*
X7752857Y-12185000D01*
X7767143Y-12199286D01*
X7781428Y-12185000D01*
X7767143Y-12170714D01*
X7767143Y-12199286D01*
X7952857Y-12470714D02*
X7924286Y-12456429D01*
X7910000Y-12427857D01*
X7910000Y-12170714D01*
X8110000Y-12470714D02*
X8081428Y-12456429D01*
X8067143Y-12427857D01*
X8067143Y-12170714D01*
X8452857Y-12470714D02*
X8452857Y-12170714D01*
X8552857Y-12385000D01*
X8652857Y-12170714D01*
X8652857Y-12470714D01*
X8924286Y-12470714D02*
X8924286Y-12313571D01*
X8910000Y-12285000D01*
X8881428Y-12270714D01*
X8824286Y-12270714D01*
X8795714Y-12285000D01*
X8924286Y-12456429D02*
X8895714Y-12470714D01*
X8824286Y-12470714D01*
X8795714Y-12456429D01*
X8781428Y-12427857D01*
X8781428Y-12399286D01*
X8795714Y-12370714D01*
X8824286Y-12356429D01*
X8895714Y-12356429D01*
X8924286Y-12342143D01*
X9067143Y-12270714D02*
X9067143Y-12570714D01*
X9067143Y-12285000D02*
X9095714Y-12270714D01*
X9152857Y-12270714D01*
X9181428Y-12285000D01*
X9195714Y-12299286D01*
X9210000Y-12327857D01*
X9210000Y-12413571D01*
X9195714Y-12442143D01*
X9181428Y-12456429D01*
X9152857Y-12470714D01*
X9095714Y-12470714D01*
X9067143Y-12456429D01*
X9338571Y-12442143D02*
X9352857Y-12456429D01*
X9338571Y-12470714D01*
X9324286Y-12456429D01*
X9338571Y-12442143D01*
X9338571Y-12470714D01*
X9338571Y-12285000D02*
X9352857Y-12299286D01*
X9338571Y-12313571D01*
X9324286Y-12299286D01*
X9338571Y-12285000D01*
X9338571Y-12313571D01*
M02*
