M48
; DRILL file {KiCad (5.1.2)-2} date 03/02/2020 20:53:38
; FORMAT={-:-/ absolute / metric / decimal}
; #@! TF.CreationDate,2020-02-03T20:53:38+01:00
; #@! TF.GenerationSoftware,Kicad,Pcbnew,(5.1.2)-2
; #@! TF.FileFunction,NonPlated,1,2,NPTH
FMAT,2
METRIC
%
G90
G05
T0
M30
