%FSLAX45Y45*%
G04 Gerber Fmt 4.5, Leading zero omitted, Abs format (unit mm)*
G04 Created by KiCad (PCBNEW (5.1.2)-2) date 2020-02-03 20:53:39*
%MOMM*%
%LPD*%
G04 APERTURE LIST*
%ADD10C,0.050000*%
%ADD11C,0.100000*%
%ADD12C,0.200000*%
%ADD13C,0.300000*%
G04 APERTURE END LIST*
D10*
X7310000Y-11800000D02*
G75*
G03X7310000Y-11800000I-110000J0D01*
G01*
X11900000Y-11800000D02*
G75*
G03X11900000Y-11800000I-100000J0D01*
G01*
X11900000Y-7200000D02*
G75*
G03X11900000Y-7200000I-100000J0D01*
G01*
X7300000Y-7200000D02*
G75*
G03X7300000Y-7200000I-100000J0D01*
G01*
D11*
X12000000Y-7000000D02*
X12000000Y-12000000D01*
X7000000Y-7000000D02*
X12000000Y-7000000D01*
X7000000Y-12000000D02*
X7000000Y-7000000D01*
X12000000Y-12000000D02*
X7000000Y-12000000D01*
D12*
X7835900Y-7581900D02*
X7912100Y-7658100D01*
X7912100Y-7581900D02*
X7835900Y-7658100D01*
X7835900Y-7835900D02*
X7912100Y-7912100D01*
X7912100Y-7835900D02*
X7835900Y-7912100D01*
X7835900Y-8089900D02*
X7912100Y-8166100D01*
X7912100Y-8089900D02*
X7835900Y-8166100D01*
X7835900Y-8343900D02*
X7912100Y-8420100D01*
X7912100Y-8343900D02*
X7835900Y-8420100D01*
X7835900Y-8597900D02*
X7912100Y-8674100D01*
X7912100Y-8597900D02*
X7835900Y-8674100D01*
X8089900Y-7581900D02*
X8166100Y-7658100D01*
X8166100Y-7581900D02*
X8089900Y-7658100D01*
X8089900Y-7835900D02*
X8166100Y-7912100D01*
X8166100Y-7835900D02*
X8089900Y-7912100D01*
X8089900Y-8089900D02*
X8166100Y-8166100D01*
X8166100Y-8089900D02*
X8089900Y-8166100D01*
X8089900Y-8343900D02*
X8166100Y-8420100D01*
X8166100Y-8343900D02*
X8089900Y-8420100D01*
X8089900Y-8597900D02*
X8166100Y-8674100D01*
X8166100Y-8597900D02*
X8089900Y-8674100D01*
X8343900Y-7581900D02*
X8420100Y-7658100D01*
X8420100Y-7581900D02*
X8343900Y-7658100D01*
X8343900Y-7835900D02*
X8420100Y-7912100D01*
X8420100Y-7835900D02*
X8343900Y-7912100D01*
X8343900Y-8089900D02*
X8420100Y-8166100D01*
X8420100Y-8089900D02*
X8343900Y-8166100D01*
X8343900Y-8343900D02*
X8420100Y-8420100D01*
X8420100Y-8343900D02*
X8343900Y-8420100D01*
X8343900Y-8597900D02*
X8420100Y-8674100D01*
X8420100Y-8597900D02*
X8343900Y-8674100D01*
X8597900Y-7581900D02*
X8674100Y-7658100D01*
X8674100Y-7581900D02*
X8597900Y-7658100D01*
X8597900Y-7835900D02*
X8674100Y-7912100D01*
X8674100Y-7835900D02*
X8597900Y-7912100D01*
X8597900Y-8089900D02*
X8674100Y-8166100D01*
X8674100Y-8089900D02*
X8597900Y-8166100D01*
X8597900Y-8343900D02*
X8674100Y-8420100D01*
X8674100Y-8343900D02*
X8597900Y-8420100D01*
X8597900Y-8597900D02*
X8674100Y-8674100D01*
X8674100Y-8597900D02*
X8597900Y-8674100D01*
X8851900Y-7581900D02*
X8928100Y-7658100D01*
X8928100Y-7581900D02*
X8851900Y-7658100D01*
X8851900Y-7835900D02*
X8928100Y-7912100D01*
X8928100Y-7835900D02*
X8851900Y-7912100D01*
X8851900Y-8089900D02*
X8928100Y-8166100D01*
X8928100Y-8089900D02*
X8851900Y-8166100D01*
X8851900Y-8343900D02*
X8928100Y-8420100D01*
X8928100Y-8343900D02*
X8851900Y-8420100D01*
X8851900Y-8597900D02*
X8928100Y-8674100D01*
X8928100Y-8597900D02*
X8851900Y-8674100D01*
X7835900Y-8851900D02*
X7912100Y-8928100D01*
X7912100Y-8851900D02*
X7835900Y-8928100D01*
X7835900Y-9105900D02*
X7912100Y-9182100D01*
X7912100Y-9105900D02*
X7835900Y-9182100D01*
X7835900Y-9359900D02*
X7912100Y-9436100D01*
X7912100Y-9359900D02*
X7835900Y-9436100D01*
X7835900Y-9613900D02*
X7912100Y-9690100D01*
X7912100Y-9613900D02*
X7835900Y-9690100D01*
X7835900Y-9867900D02*
X7912100Y-9944100D01*
X7912100Y-9867900D02*
X7835900Y-9944100D01*
X8089900Y-8851900D02*
X8166100Y-8928100D01*
X8166100Y-8851900D02*
X8089900Y-8928100D01*
X8089900Y-9105900D02*
X8166100Y-9182100D01*
X8166100Y-9105900D02*
X8089900Y-9182100D01*
X8089900Y-9359900D02*
X8166100Y-9436100D01*
X8166100Y-9359900D02*
X8089900Y-9436100D01*
X8089900Y-9613900D02*
X8166100Y-9690100D01*
X8166100Y-9613900D02*
X8089900Y-9690100D01*
X8089900Y-9867900D02*
X8166100Y-9944100D01*
X8166100Y-9867900D02*
X8089900Y-9944100D01*
X8343900Y-8851900D02*
X8420100Y-8928100D01*
X8420100Y-8851900D02*
X8343900Y-8928100D01*
X8343900Y-9105900D02*
X8420100Y-9182100D01*
X8420100Y-9105900D02*
X8343900Y-9182100D01*
X8343900Y-9359900D02*
X8420100Y-9436100D01*
X8420100Y-9359900D02*
X8343900Y-9436100D01*
X8343900Y-9613900D02*
X8420100Y-9690100D01*
X8420100Y-9613900D02*
X8343900Y-9690100D01*
X8343900Y-9867900D02*
X8420100Y-9944100D01*
X8420100Y-9867900D02*
X8343900Y-9944100D01*
X8597900Y-8851900D02*
X8674100Y-8928100D01*
X8674100Y-8851900D02*
X8597900Y-8928100D01*
X8597900Y-9105900D02*
X8674100Y-9182100D01*
X8674100Y-9105900D02*
X8597900Y-9182100D01*
X8597900Y-9359900D02*
X8674100Y-9436100D01*
X8674100Y-9359900D02*
X8597900Y-9436100D01*
X8597900Y-9613900D02*
X8674100Y-9690100D01*
X8674100Y-9613900D02*
X8597900Y-9690100D01*
X8597900Y-9867900D02*
X8674100Y-9944100D01*
X8674100Y-9867900D02*
X8597900Y-9944100D01*
X8851900Y-8851900D02*
X8928100Y-8928100D01*
X8928100Y-8851900D02*
X8851900Y-8928100D01*
X8851900Y-9105900D02*
X8928100Y-9182100D01*
X8928100Y-9105900D02*
X8851900Y-9182100D01*
X8851900Y-9359900D02*
X8928100Y-9436100D01*
X8928100Y-9359900D02*
X8851900Y-9436100D01*
X8851900Y-9613900D02*
X8928100Y-9690100D01*
X8928100Y-9613900D02*
X8851900Y-9690100D01*
X8851900Y-9867900D02*
X8928100Y-9944100D01*
X8928100Y-9867900D02*
X8851900Y-9944100D01*
X9105900Y-8851900D02*
X9182100Y-8928100D01*
X9182100Y-8851900D02*
X9105900Y-8928100D01*
X9105900Y-9105900D02*
X9182100Y-9182100D01*
X9182100Y-9105900D02*
X9105900Y-9182100D01*
X9105900Y-9359900D02*
X9182100Y-9436100D01*
X9182100Y-9359900D02*
X9105900Y-9436100D01*
X9105900Y-9613900D02*
X9182100Y-9690100D01*
X9182100Y-9613900D02*
X9105900Y-9690100D01*
X9105900Y-9867900D02*
X9182100Y-9944100D01*
X9182100Y-9867900D02*
X9105900Y-9944100D01*
X9359900Y-8851900D02*
X9436100Y-8928100D01*
X9436100Y-8851900D02*
X9359900Y-8928100D01*
X9359900Y-9105900D02*
X9436100Y-9182100D01*
X9436100Y-9105900D02*
X9359900Y-9182100D01*
X9359900Y-9359900D02*
X9436100Y-9436100D01*
X9436100Y-9359900D02*
X9359900Y-9436100D01*
X9359900Y-9613900D02*
X9436100Y-9690100D01*
X9436100Y-9613900D02*
X9359900Y-9690100D01*
X9359900Y-9867900D02*
X9436100Y-9944100D01*
X9436100Y-9867900D02*
X9359900Y-9944100D01*
X9613900Y-8851900D02*
X9690100Y-8928100D01*
X9690100Y-8851900D02*
X9613900Y-8928100D01*
X9613900Y-9105900D02*
X9690100Y-9182100D01*
X9690100Y-9105900D02*
X9613900Y-9182100D01*
X9613900Y-9359900D02*
X9690100Y-9436100D01*
X9690100Y-9359900D02*
X9613900Y-9436100D01*
X9613900Y-9613900D02*
X9690100Y-9690100D01*
X9690100Y-9613900D02*
X9613900Y-9690100D01*
X9613900Y-9867900D02*
X9690100Y-9944100D01*
X9690100Y-9867900D02*
X9613900Y-9944100D01*
X9867900Y-8851900D02*
X9944100Y-8928100D01*
X9944100Y-8851900D02*
X9867900Y-8928100D01*
X9867900Y-9105900D02*
X9944100Y-9182100D01*
X9944100Y-9105900D02*
X9867900Y-9182100D01*
X9867900Y-9359900D02*
X9944100Y-9436100D01*
X9944100Y-9359900D02*
X9867900Y-9436100D01*
X9867900Y-9613900D02*
X9944100Y-9690100D01*
X9944100Y-9613900D02*
X9867900Y-9690100D01*
X9867900Y-9867900D02*
X9944100Y-9944100D01*
X9944100Y-9867900D02*
X9867900Y-9944100D01*
X10121900Y-8851900D02*
X10198100Y-8928100D01*
X10198100Y-8851900D02*
X10121900Y-8928100D01*
X10121900Y-9105900D02*
X10198100Y-9182100D01*
X10198100Y-9105900D02*
X10121900Y-9182100D01*
X10121900Y-9359900D02*
X10198100Y-9436100D01*
X10198100Y-9359900D02*
X10121900Y-9436100D01*
X10121900Y-9613900D02*
X10198100Y-9690100D01*
X10198100Y-9613900D02*
X10121900Y-9690100D01*
X10121900Y-9867900D02*
X10198100Y-9944100D01*
X10198100Y-9867900D02*
X10121900Y-9944100D01*
X10375900Y-8851900D02*
X10452100Y-8928100D01*
X10452100Y-8851900D02*
X10375900Y-8928100D01*
X10375900Y-9105900D02*
X10452100Y-9182100D01*
X10452100Y-9105900D02*
X10375900Y-9182100D01*
X10375900Y-9359900D02*
X10452100Y-9436100D01*
X10452100Y-9359900D02*
X10375900Y-9436100D01*
X10375900Y-9613900D02*
X10452100Y-9690100D01*
X10452100Y-9613900D02*
X10375900Y-9690100D01*
X10375900Y-9867900D02*
X10452100Y-9944100D01*
X10452100Y-9867900D02*
X10375900Y-9944100D01*
X10629900Y-8851900D02*
X10706100Y-8928100D01*
X10706100Y-8851900D02*
X10629900Y-8928100D01*
X10629900Y-9105900D02*
X10706100Y-9182100D01*
X10706100Y-9105900D02*
X10629900Y-9182100D01*
X10629900Y-9359900D02*
X10706100Y-9436100D01*
X10706100Y-9359900D02*
X10629900Y-9436100D01*
X10629900Y-9613900D02*
X10706100Y-9690100D01*
X10706100Y-9613900D02*
X10629900Y-9690100D01*
X10629900Y-9867900D02*
X10706100Y-9944100D01*
X10706100Y-9867900D02*
X10629900Y-9944100D01*
X10883900Y-8851900D02*
X10960100Y-8928100D01*
X10960100Y-8851900D02*
X10883900Y-8928100D01*
X10883900Y-9105900D02*
X10960100Y-9182100D01*
X10960100Y-9105900D02*
X10883900Y-9182100D01*
X10883900Y-9359900D02*
X10960100Y-9436100D01*
X10960100Y-9359900D02*
X10883900Y-9436100D01*
X10883900Y-9613900D02*
X10960100Y-9690100D01*
X10960100Y-9613900D02*
X10883900Y-9690100D01*
X10883900Y-9867900D02*
X10960100Y-9944100D01*
X10960100Y-9867900D02*
X10883900Y-9944100D01*
X11137900Y-8851900D02*
X11214100Y-8928100D01*
X11214100Y-8851900D02*
X11137900Y-8928100D01*
X11137900Y-9105900D02*
X11214100Y-9182100D01*
X11214100Y-9105900D02*
X11137900Y-9182100D01*
X11137900Y-9359900D02*
X11214100Y-9436100D01*
X11214100Y-9359900D02*
X11137900Y-9436100D01*
X11137900Y-9613900D02*
X11214100Y-9690100D01*
X11214100Y-9613900D02*
X11137900Y-9690100D01*
X11137900Y-9867900D02*
X11214100Y-9944100D01*
X11214100Y-9867900D02*
X11137900Y-9944100D01*
X7835900Y-10121900D02*
X7912100Y-10198100D01*
X7912100Y-10121900D02*
X7835900Y-10198100D01*
X7835900Y-10375900D02*
X7912100Y-10452100D01*
X7912100Y-10375900D02*
X7835900Y-10452100D01*
X7835900Y-10629900D02*
X7912100Y-10706100D01*
X7912100Y-10629900D02*
X7835900Y-10706100D01*
X7835900Y-10883900D02*
X7912100Y-10960100D01*
X7912100Y-10883900D02*
X7835900Y-10960100D01*
X7835900Y-11137900D02*
X7912100Y-11214100D01*
X7912100Y-11137900D02*
X7835900Y-11214100D01*
X8089900Y-10121900D02*
X8166100Y-10198100D01*
X8166100Y-10121900D02*
X8089900Y-10198100D01*
X8089900Y-10375900D02*
X8166100Y-10452100D01*
X8166100Y-10375900D02*
X8089900Y-10452100D01*
X8089900Y-10629900D02*
X8166100Y-10706100D01*
X8166100Y-10629900D02*
X8089900Y-10706100D01*
X8089900Y-10883900D02*
X8166100Y-10960100D01*
X8166100Y-10883900D02*
X8089900Y-10960100D01*
X8089900Y-11137900D02*
X8166100Y-11214100D01*
X8166100Y-11137900D02*
X8089900Y-11214100D01*
X8343900Y-10121900D02*
X8420100Y-10198100D01*
X8420100Y-10121900D02*
X8343900Y-10198100D01*
X8343900Y-10375900D02*
X8420100Y-10452100D01*
X8420100Y-10375900D02*
X8343900Y-10452100D01*
X8343900Y-10629900D02*
X8420100Y-10706100D01*
X8420100Y-10629900D02*
X8343900Y-10706100D01*
X8343900Y-10883900D02*
X8420100Y-10960100D01*
X8420100Y-10883900D02*
X8343900Y-10960100D01*
X8343900Y-11137900D02*
X8420100Y-11214100D01*
X8420100Y-11137900D02*
X8343900Y-11214100D01*
X8597900Y-10121900D02*
X8674100Y-10198100D01*
X8674100Y-10121900D02*
X8597900Y-10198100D01*
X8597900Y-10375900D02*
X8674100Y-10452100D01*
X8674100Y-10375900D02*
X8597900Y-10452100D01*
X8597900Y-10629900D02*
X8674100Y-10706100D01*
X8674100Y-10629900D02*
X8597900Y-10706100D01*
X8597900Y-10883900D02*
X8674100Y-10960100D01*
X8674100Y-10883900D02*
X8597900Y-10960100D01*
X8597900Y-11137900D02*
X8674100Y-11214100D01*
X8674100Y-11137900D02*
X8597900Y-11214100D01*
X8851900Y-10121900D02*
X8928100Y-10198100D01*
X8928100Y-10121900D02*
X8851900Y-10198100D01*
X8851900Y-10375900D02*
X8928100Y-10452100D01*
X8928100Y-10375900D02*
X8851900Y-10452100D01*
X8851900Y-10629900D02*
X8928100Y-10706100D01*
X8928100Y-10629900D02*
X8851900Y-10706100D01*
X8851900Y-10883900D02*
X8928100Y-10960100D01*
X8928100Y-10883900D02*
X8851900Y-10960100D01*
X8851900Y-11137900D02*
X8928100Y-11214100D01*
X8928100Y-11137900D02*
X8851900Y-11214100D01*
X7835900Y-11391900D02*
X7912100Y-11468100D01*
X7912100Y-11391900D02*
X7835900Y-11468100D01*
X8089900Y-11391900D02*
X8166100Y-11468100D01*
X8166100Y-11391900D02*
X8089900Y-11468100D01*
X8343900Y-11391900D02*
X8420100Y-11468100D01*
X8420100Y-11391900D02*
X8343900Y-11468100D01*
X8597900Y-11391900D02*
X8674100Y-11468100D01*
X8674100Y-11391900D02*
X8597900Y-11468100D01*
X8851900Y-11391900D02*
X8928100Y-11468100D01*
X8928100Y-11391900D02*
X8851900Y-11468100D01*
X9105900Y-11391900D02*
X9182100Y-11468100D01*
X9182100Y-11391900D02*
X9105900Y-11468100D01*
X9359900Y-11391900D02*
X9436100Y-11468100D01*
X9436100Y-11391900D02*
X9359900Y-11468100D01*
X9613900Y-11391900D02*
X9690100Y-11468100D01*
X9690100Y-11391900D02*
X9613900Y-11468100D01*
X9867900Y-11391900D02*
X9944100Y-11468100D01*
X9944100Y-11391900D02*
X9867900Y-11468100D01*
X10121900Y-11391900D02*
X10198100Y-11468100D01*
X10198100Y-11391900D02*
X10121900Y-11468100D01*
X10375900Y-11391900D02*
X10452100Y-11468100D01*
X10452100Y-11391900D02*
X10375900Y-11468100D01*
X10629900Y-11391900D02*
X10706100Y-11468100D01*
X10706100Y-11391900D02*
X10629900Y-11468100D01*
X10883900Y-11391900D02*
X10960100Y-11468100D01*
X10960100Y-11391900D02*
X10883900Y-11468100D01*
X11137900Y-11391900D02*
X11214100Y-11468100D01*
X11214100Y-11391900D02*
X11137900Y-11468100D01*
X9105900Y-10121900D02*
X9182100Y-10198100D01*
X9182100Y-10121900D02*
X9105900Y-10198100D01*
X9105900Y-10375900D02*
X9182100Y-10452100D01*
X9182100Y-10375900D02*
X9105900Y-10452100D01*
X9105900Y-10629900D02*
X9182100Y-10706100D01*
X9182100Y-10629900D02*
X9105900Y-10706100D01*
X9105900Y-10883900D02*
X9182100Y-10960100D01*
X9182100Y-10883900D02*
X9105900Y-10960100D01*
X9105900Y-11137900D02*
X9182100Y-11214100D01*
X9182100Y-11137900D02*
X9105900Y-11214100D01*
X9359900Y-10121900D02*
X9436100Y-10198100D01*
X9436100Y-10121900D02*
X9359900Y-10198100D01*
X9359900Y-10375900D02*
X9436100Y-10452100D01*
X9436100Y-10375900D02*
X9359900Y-10452100D01*
X9359900Y-10629900D02*
X9436100Y-10706100D01*
X9436100Y-10629900D02*
X9359900Y-10706100D01*
X9359900Y-10883900D02*
X9436100Y-10960100D01*
X9436100Y-10883900D02*
X9359900Y-10960100D01*
X9359900Y-11137900D02*
X9436100Y-11214100D01*
X9436100Y-11137900D02*
X9359900Y-11214100D01*
X9613900Y-10121900D02*
X9690100Y-10198100D01*
X9690100Y-10121900D02*
X9613900Y-10198100D01*
X9613900Y-10375900D02*
X9690100Y-10452100D01*
X9690100Y-10375900D02*
X9613900Y-10452100D01*
X9613900Y-10629900D02*
X9690100Y-10706100D01*
X9690100Y-10629900D02*
X9613900Y-10706100D01*
X9613900Y-10883900D02*
X9690100Y-10960100D01*
X9690100Y-10883900D02*
X9613900Y-10960100D01*
X9613900Y-11137900D02*
X9690100Y-11214100D01*
X9690100Y-11137900D02*
X9613900Y-11214100D01*
X9867900Y-10121900D02*
X9944100Y-10198100D01*
X9944100Y-10121900D02*
X9867900Y-10198100D01*
X9867900Y-10375900D02*
X9944100Y-10452100D01*
X9944100Y-10375900D02*
X9867900Y-10452100D01*
X9867900Y-10629900D02*
X9944100Y-10706100D01*
X9944100Y-10629900D02*
X9867900Y-10706100D01*
X9867900Y-10883900D02*
X9944100Y-10960100D01*
X9944100Y-10883900D02*
X9867900Y-10960100D01*
X9867900Y-11137900D02*
X9944100Y-11214100D01*
X9944100Y-11137900D02*
X9867900Y-11214100D01*
X10121900Y-7581900D02*
X10198100Y-7658100D01*
X10198100Y-7581900D02*
X10121900Y-7658100D01*
X10121900Y-7835900D02*
X10198100Y-7912100D01*
X10198100Y-7835900D02*
X10121900Y-7912100D01*
X10121900Y-8089900D02*
X10198100Y-8166100D01*
X10198100Y-8089900D02*
X10121900Y-8166100D01*
X10121900Y-8343900D02*
X10198100Y-8420100D01*
X10198100Y-8343900D02*
X10121900Y-8420100D01*
X10121900Y-8597900D02*
X10198100Y-8674100D01*
X10198100Y-8597900D02*
X10121900Y-8674100D01*
X10375900Y-7581900D02*
X10452100Y-7658100D01*
X10452100Y-7581900D02*
X10375900Y-7658100D01*
X10375900Y-7835900D02*
X10452100Y-7912100D01*
X10452100Y-7835900D02*
X10375900Y-7912100D01*
X10375900Y-8089900D02*
X10452100Y-8166100D01*
X10452100Y-8089900D02*
X10375900Y-8166100D01*
X10375900Y-8343900D02*
X10452100Y-8420100D01*
X10452100Y-8343900D02*
X10375900Y-8420100D01*
X10375900Y-8597900D02*
X10452100Y-8674100D01*
X10452100Y-8597900D02*
X10375900Y-8674100D01*
X10629900Y-7581900D02*
X10706100Y-7658100D01*
X10706100Y-7581900D02*
X10629900Y-7658100D01*
X10629900Y-7835900D02*
X10706100Y-7912100D01*
X10706100Y-7835900D02*
X10629900Y-7912100D01*
X10629900Y-8089900D02*
X10706100Y-8166100D01*
X10706100Y-8089900D02*
X10629900Y-8166100D01*
X10629900Y-8343900D02*
X10706100Y-8420100D01*
X10706100Y-8343900D02*
X10629900Y-8420100D01*
X10629900Y-8597900D02*
X10706100Y-8674100D01*
X10706100Y-8597900D02*
X10629900Y-8674100D01*
X10883900Y-7581900D02*
X10960100Y-7658100D01*
X10960100Y-7581900D02*
X10883900Y-7658100D01*
X10883900Y-7835900D02*
X10960100Y-7912100D01*
X10960100Y-7835900D02*
X10883900Y-7912100D01*
X10883900Y-8089900D02*
X10960100Y-8166100D01*
X10960100Y-8089900D02*
X10883900Y-8166100D01*
X10883900Y-8343900D02*
X10960100Y-8420100D01*
X10960100Y-8343900D02*
X10883900Y-8420100D01*
X10883900Y-8597900D02*
X10960100Y-8674100D01*
X10960100Y-8597900D02*
X10883900Y-8674100D01*
X11137900Y-7581900D02*
X11214100Y-7658100D01*
X11214100Y-7581900D02*
X11137900Y-7658100D01*
X11137900Y-7835900D02*
X11214100Y-7912100D01*
X11214100Y-7835900D02*
X11137900Y-7912100D01*
X11137900Y-8089900D02*
X11214100Y-8166100D01*
X11214100Y-8089900D02*
X11137900Y-8166100D01*
X11137900Y-8343900D02*
X11214100Y-8420100D01*
X11214100Y-8343900D02*
X11137900Y-8420100D01*
X11137900Y-8597900D02*
X11214100Y-8674100D01*
X11214100Y-8597900D02*
X11137900Y-8674100D01*
X10121900Y-10121900D02*
X10198100Y-10198100D01*
X10198100Y-10121900D02*
X10121900Y-10198100D01*
X10121900Y-10375900D02*
X10198100Y-10452100D01*
X10198100Y-10375900D02*
X10121900Y-10452100D01*
X10121900Y-10629900D02*
X10198100Y-10706100D01*
X10198100Y-10629900D02*
X10121900Y-10706100D01*
X10121900Y-10883900D02*
X10198100Y-10960100D01*
X10198100Y-10883900D02*
X10121900Y-10960100D01*
X10121900Y-11137900D02*
X10198100Y-11214100D01*
X10198100Y-11137900D02*
X10121900Y-11214100D01*
X10375900Y-10121900D02*
X10452100Y-10198100D01*
X10452100Y-10121900D02*
X10375900Y-10198100D01*
X10375900Y-10375900D02*
X10452100Y-10452100D01*
X10452100Y-10375900D02*
X10375900Y-10452100D01*
X10375900Y-10629900D02*
X10452100Y-10706100D01*
X10452100Y-10629900D02*
X10375900Y-10706100D01*
X10375900Y-10883900D02*
X10452100Y-10960100D01*
X10452100Y-10883900D02*
X10375900Y-10960100D01*
X10375900Y-11137900D02*
X10452100Y-11214100D01*
X10452100Y-11137900D02*
X10375900Y-11214100D01*
X10629900Y-10121900D02*
X10706100Y-10198100D01*
X10706100Y-10121900D02*
X10629900Y-10198100D01*
X10629900Y-10375900D02*
X10706100Y-10452100D01*
X10706100Y-10375900D02*
X10629900Y-10452100D01*
X10629900Y-10629900D02*
X10706100Y-10706100D01*
X10706100Y-10629900D02*
X10629900Y-10706100D01*
X10629900Y-10883900D02*
X10706100Y-10960100D01*
X10706100Y-10883900D02*
X10629900Y-10960100D01*
X10629900Y-11137900D02*
X10706100Y-11214100D01*
X10706100Y-11137900D02*
X10629900Y-11214100D01*
X10883900Y-10121900D02*
X10960100Y-10198100D01*
X10960100Y-10121900D02*
X10883900Y-10198100D01*
X10883900Y-10375900D02*
X10960100Y-10452100D01*
X10960100Y-10375900D02*
X10883900Y-10452100D01*
X10883900Y-10629900D02*
X10960100Y-10706100D01*
X10960100Y-10629900D02*
X10883900Y-10706100D01*
X10883900Y-10883900D02*
X10960100Y-10960100D01*
X10960100Y-10883900D02*
X10883900Y-10960100D01*
X10883900Y-11137900D02*
X10960100Y-11214100D01*
X10960100Y-11137900D02*
X10883900Y-11214100D01*
X11137900Y-10121900D02*
X11214100Y-10198100D01*
X11214100Y-10121900D02*
X11137900Y-10198100D01*
X11137900Y-10375900D02*
X11214100Y-10452100D01*
X11214100Y-10375900D02*
X11137900Y-10452100D01*
X11137900Y-10629900D02*
X11214100Y-10706100D01*
X11214100Y-10629900D02*
X11137900Y-10706100D01*
X11137900Y-10883900D02*
X11214100Y-10960100D01*
X11214100Y-10883900D02*
X11137900Y-10960100D01*
X11137900Y-11137900D02*
X11214100Y-11214100D01*
X11214100Y-11137900D02*
X11137900Y-11214100D01*
X9105900Y-7581900D02*
X9182100Y-7658100D01*
X9182100Y-7581900D02*
X9105900Y-7658100D01*
X9105900Y-7835900D02*
X9182100Y-7912100D01*
X9182100Y-7835900D02*
X9105900Y-7912100D01*
X9105900Y-8089900D02*
X9182100Y-8166100D01*
X9182100Y-8089900D02*
X9105900Y-8166100D01*
X9105900Y-8343900D02*
X9182100Y-8420100D01*
X9182100Y-8343900D02*
X9105900Y-8420100D01*
X9105900Y-8597900D02*
X9182100Y-8674100D01*
X9182100Y-8597900D02*
X9105900Y-8674100D01*
X9359900Y-7581900D02*
X9436100Y-7658100D01*
X9436100Y-7581900D02*
X9359900Y-7658100D01*
X9359900Y-7835900D02*
X9436100Y-7912100D01*
X9436100Y-7835900D02*
X9359900Y-7912100D01*
X9359900Y-8089900D02*
X9436100Y-8166100D01*
X9436100Y-8089900D02*
X9359900Y-8166100D01*
X9359900Y-8343900D02*
X9436100Y-8420100D01*
X9436100Y-8343900D02*
X9359900Y-8420100D01*
X9359900Y-8597900D02*
X9436100Y-8674100D01*
X9436100Y-8597900D02*
X9359900Y-8674100D01*
X9613900Y-7581900D02*
X9690100Y-7658100D01*
X9690100Y-7581900D02*
X9613900Y-7658100D01*
X9613900Y-7835900D02*
X9690100Y-7912100D01*
X9690100Y-7835900D02*
X9613900Y-7912100D01*
X9613900Y-8089900D02*
X9690100Y-8166100D01*
X9690100Y-8089900D02*
X9613900Y-8166100D01*
X9613900Y-8343900D02*
X9690100Y-8420100D01*
X9690100Y-8343900D02*
X9613900Y-8420100D01*
X9613900Y-8597900D02*
X9690100Y-8674100D01*
X9690100Y-8597900D02*
X9613900Y-8674100D01*
X9867900Y-7581900D02*
X9944100Y-7658100D01*
X9944100Y-7581900D02*
X9867900Y-7658100D01*
X9867900Y-7835900D02*
X9944100Y-7912100D01*
X9944100Y-7835900D02*
X9867900Y-7912100D01*
X9867900Y-8089900D02*
X9944100Y-8166100D01*
X9944100Y-8089900D02*
X9867900Y-8166100D01*
X9867900Y-8343900D02*
X9944100Y-8420100D01*
X9944100Y-8343900D02*
X9867900Y-8420100D01*
X9867900Y-8597900D02*
X9944100Y-8674100D01*
X9944100Y-8597900D02*
X9867900Y-8674100D01*
X11550000Y-7584000D02*
G75*
G03X11550000Y-7584000I-50000J0D01*
G01*
X11550000Y-7838000D02*
G75*
G03X11550000Y-7838000I-50000J0D01*
G01*
X11550000Y-8092000D02*
G75*
G03X11550000Y-8092000I-50000J0D01*
G01*
X11550000Y-8346000D02*
G75*
G03X11550000Y-8346000I-50000J0D01*
G01*
X11550000Y-8600000D02*
G75*
G03X11550000Y-8600000I-50000J0D01*
G01*
X11550000Y-8854000D02*
G75*
G03X11550000Y-8854000I-50000J0D01*
G01*
X11550000Y-9108000D02*
G75*
G03X11550000Y-9108000I-50000J0D01*
G01*
X11550000Y-9362000D02*
G75*
G03X11550000Y-9362000I-50000J0D01*
G01*
X11550000Y-9616000D02*
G75*
G03X11550000Y-9616000I-50000J0D01*
G01*
X11550000Y-9870000D02*
G75*
G03X11550000Y-9870000I-50000J0D01*
G01*
X11550000Y-10124000D02*
G75*
G03X11550000Y-10124000I-50000J0D01*
G01*
X11550000Y-10378000D02*
G75*
G03X11550000Y-10378000I-50000J0D01*
G01*
X11550000Y-10632000D02*
G75*
G03X11550000Y-10632000I-50000J0D01*
G01*
X11550000Y-10886000D02*
G75*
G03X11550000Y-10886000I-50000J0D01*
G01*
X11550000Y-11140000D02*
G75*
G03X11550000Y-11140000I-50000J0D01*
G01*
X11550000Y-11394000D02*
G75*
G03X11550000Y-11394000I-50000J0D01*
G01*
X7550000Y-7600000D02*
G75*
G03X7550000Y-7600000I-50000J0D01*
G01*
X7550000Y-7854000D02*
G75*
G03X7550000Y-7854000I-50000J0D01*
G01*
X7550000Y-8108000D02*
G75*
G03X7550000Y-8108000I-50000J0D01*
G01*
X7550000Y-8362000D02*
G75*
G03X7550000Y-8362000I-50000J0D01*
G01*
X7550000Y-8616000D02*
G75*
G03X7550000Y-8616000I-50000J0D01*
G01*
X7550000Y-8870000D02*
G75*
G03X7550000Y-8870000I-50000J0D01*
G01*
X7550000Y-9124000D02*
G75*
G03X7550000Y-9124000I-50000J0D01*
G01*
X7550000Y-9378000D02*
G75*
G03X7550000Y-9378000I-50000J0D01*
G01*
X7550000Y-9632000D02*
G75*
G03X7550000Y-9632000I-50000J0D01*
G01*
X7550000Y-9886000D02*
G75*
G03X7550000Y-9886000I-50000J0D01*
G01*
X7550000Y-10140000D02*
G75*
G03X7550000Y-10140000I-50000J0D01*
G01*
X7550000Y-10394000D02*
G75*
G03X7550000Y-10394000I-50000J0D01*
G01*
X7550000Y-10648000D02*
G75*
G03X7550000Y-10648000I-50000J0D01*
G01*
X7550000Y-10902000D02*
G75*
G03X7550000Y-10902000I-50000J0D01*
G01*
X7550000Y-11156000D02*
G75*
G03X7550000Y-11156000I-50000J0D01*
G01*
X7550000Y-11410000D02*
G75*
G03X7550000Y-11410000I-50000J0D01*
G01*
D13*
X7281428Y-12470714D02*
X7281428Y-12170714D01*
X7352857Y-12170714D01*
X7395714Y-12185000D01*
X7424286Y-12213571D01*
X7438571Y-12242143D01*
X7452857Y-12299286D01*
X7452857Y-12342143D01*
X7438571Y-12399286D01*
X7424286Y-12427857D01*
X7395714Y-12456429D01*
X7352857Y-12470714D01*
X7281428Y-12470714D01*
X7581428Y-12470714D02*
X7581428Y-12270714D01*
X7581428Y-12327857D02*
X7595714Y-12299286D01*
X7610000Y-12285000D01*
X7638571Y-12270714D01*
X7667143Y-12270714D01*
X7767143Y-12470714D02*
X7767143Y-12270714D01*
X7767143Y-12170714D02*
X7752857Y-12185000D01*
X7767143Y-12199286D01*
X7781428Y-12185000D01*
X7767143Y-12170714D01*
X7767143Y-12199286D01*
X7952857Y-12470714D02*
X7924286Y-12456429D01*
X7910000Y-12427857D01*
X7910000Y-12170714D01*
X8110000Y-12470714D02*
X8081428Y-12456429D01*
X8067143Y-12427857D01*
X8067143Y-12170714D01*
X8452857Y-12470714D02*
X8452857Y-12170714D01*
X8552857Y-12385000D01*
X8652857Y-12170714D01*
X8652857Y-12470714D01*
X8924286Y-12470714D02*
X8924286Y-12313571D01*
X8910000Y-12285000D01*
X8881428Y-12270714D01*
X8824286Y-12270714D01*
X8795714Y-12285000D01*
X8924286Y-12456429D02*
X8895714Y-12470714D01*
X8824286Y-12470714D01*
X8795714Y-12456429D01*
X8781428Y-12427857D01*
X8781428Y-12399286D01*
X8795714Y-12370714D01*
X8824286Y-12356429D01*
X8895714Y-12356429D01*
X8924286Y-12342143D01*
X9067143Y-12270714D02*
X9067143Y-12570714D01*
X9067143Y-12285000D02*
X9095714Y-12270714D01*
X9152857Y-12270714D01*
X9181428Y-12285000D01*
X9195714Y-12299286D01*
X9210000Y-12327857D01*
X9210000Y-12413571D01*
X9195714Y-12442143D01*
X9181428Y-12456429D01*
X9152857Y-12470714D01*
X9095714Y-12470714D01*
X9067143Y-12456429D01*
X9338571Y-12442143D02*
X9352857Y-12456429D01*
X9338571Y-12470714D01*
X9324286Y-12456429D01*
X9338571Y-12442143D01*
X9338571Y-12470714D01*
X9338571Y-12285000D02*
X9352857Y-12299286D01*
X9338571Y-12313571D01*
X9324286Y-12299286D01*
X9338571Y-12285000D01*
X9338571Y-12313571D01*
X6918800Y-12926900D02*
X6995000Y-13003100D01*
X6995000Y-12926900D02*
X6918800Y-13003100D01*
X7338571Y-12800714D02*
X7367143Y-12800714D01*
X7395714Y-12815000D01*
X7410000Y-12829286D01*
X7424286Y-12857857D01*
X7438571Y-12915000D01*
X7438571Y-12986429D01*
X7424286Y-13043571D01*
X7410000Y-13072143D01*
X7395714Y-13086429D01*
X7367143Y-13100714D01*
X7338571Y-13100714D01*
X7310000Y-13086429D01*
X7295714Y-13072143D01*
X7281428Y-13043571D01*
X7267143Y-12986429D01*
X7267143Y-12915000D01*
X7281428Y-12857857D01*
X7295714Y-12829286D01*
X7310000Y-12815000D01*
X7338571Y-12800714D01*
X7567143Y-13072143D02*
X7581428Y-13086429D01*
X7567143Y-13100714D01*
X7552857Y-13086429D01*
X7567143Y-13072143D01*
X7567143Y-13100714D01*
X7681428Y-12800714D02*
X7881428Y-12800714D01*
X7752857Y-13100714D01*
X8124286Y-12800714D02*
X8067143Y-12800714D01*
X8038571Y-12815000D01*
X8024286Y-12829286D01*
X7995714Y-12872143D01*
X7981428Y-12929286D01*
X7981428Y-13043571D01*
X7995714Y-13072143D01*
X8010000Y-13086429D01*
X8038571Y-13100714D01*
X8095714Y-13100714D01*
X8124286Y-13086429D01*
X8138571Y-13072143D01*
X8152857Y-13043571D01*
X8152857Y-12972143D01*
X8138571Y-12943571D01*
X8124286Y-12929286D01*
X8095714Y-12915000D01*
X8038571Y-12915000D01*
X8010000Y-12929286D01*
X7995714Y-12943571D01*
X7981428Y-12972143D01*
X8281428Y-13100714D02*
X8281428Y-12900714D01*
X8281428Y-12929286D02*
X8295714Y-12915000D01*
X8324286Y-12900714D01*
X8367143Y-12900714D01*
X8395714Y-12915000D01*
X8410000Y-12943571D01*
X8410000Y-13100714D01*
X8410000Y-12943571D02*
X8424286Y-12915000D01*
X8452857Y-12900714D01*
X8495714Y-12900714D01*
X8524286Y-12915000D01*
X8538571Y-12943571D01*
X8538571Y-13100714D01*
X8681428Y-13100714D02*
X8681428Y-12900714D01*
X8681428Y-12929286D02*
X8695714Y-12915000D01*
X8724286Y-12900714D01*
X8767143Y-12900714D01*
X8795714Y-12915000D01*
X8810000Y-12943571D01*
X8810000Y-13100714D01*
X8810000Y-12943571D02*
X8824286Y-12915000D01*
X8852857Y-12900714D01*
X8895714Y-12900714D01*
X8924286Y-12915000D01*
X8938571Y-12943571D01*
X8938571Y-13100714D01*
X9524286Y-12786429D02*
X9267143Y-13172143D01*
X9910000Y-12800714D02*
X9938571Y-12800714D01*
X9967143Y-12815000D01*
X9981428Y-12829286D01*
X9995714Y-12857857D01*
X10010000Y-12915000D01*
X10010000Y-12986429D01*
X9995714Y-13043571D01*
X9981428Y-13072143D01*
X9967143Y-13086429D01*
X9938571Y-13100714D01*
X9910000Y-13100714D01*
X9881428Y-13086429D01*
X9867143Y-13072143D01*
X9852857Y-13043571D01*
X9838571Y-12986429D01*
X9838571Y-12915000D01*
X9852857Y-12857857D01*
X9867143Y-12829286D01*
X9881428Y-12815000D01*
X9910000Y-12800714D01*
X10138571Y-13072143D02*
X10152857Y-13086429D01*
X10138571Y-13100714D01*
X10124286Y-13086429D01*
X10138571Y-13072143D01*
X10138571Y-13100714D01*
X10338571Y-12800714D02*
X10367143Y-12800714D01*
X10395714Y-12815000D01*
X10410000Y-12829286D01*
X10424286Y-12857857D01*
X10438571Y-12915000D01*
X10438571Y-12986429D01*
X10424286Y-13043571D01*
X10410000Y-13072143D01*
X10395714Y-13086429D01*
X10367143Y-13100714D01*
X10338571Y-13100714D01*
X10310000Y-13086429D01*
X10295714Y-13072143D01*
X10281428Y-13043571D01*
X10267143Y-12986429D01*
X10267143Y-12915000D01*
X10281428Y-12857857D01*
X10295714Y-12829286D01*
X10310000Y-12815000D01*
X10338571Y-12800714D01*
X10538571Y-12800714D02*
X10724286Y-12800714D01*
X10624286Y-12915000D01*
X10667143Y-12915000D01*
X10695714Y-12929286D01*
X10710000Y-12943571D01*
X10724286Y-12972143D01*
X10724286Y-13043571D01*
X10710000Y-13072143D01*
X10695714Y-13086429D01*
X10667143Y-13100714D01*
X10581428Y-13100714D01*
X10552857Y-13086429D01*
X10538571Y-13072143D01*
X10910000Y-12800714D02*
X10938571Y-12800714D01*
X10967143Y-12815000D01*
X10981428Y-12829286D01*
X10995714Y-12857857D01*
X11010000Y-12915000D01*
X11010000Y-12986429D01*
X10995714Y-13043571D01*
X10981428Y-13072143D01*
X10967143Y-13086429D01*
X10938571Y-13100714D01*
X10910000Y-13100714D01*
X10881428Y-13086429D01*
X10867143Y-13072143D01*
X10852857Y-13043571D01*
X10838571Y-12986429D01*
X10838571Y-12915000D01*
X10852857Y-12857857D01*
X10867143Y-12829286D01*
X10881428Y-12815000D01*
X10910000Y-12800714D01*
X11124286Y-12800714D02*
X11124286Y-12857857D01*
X11238571Y-12800714D02*
X11238571Y-12857857D01*
X11681428Y-13215000D02*
X11667143Y-13200714D01*
X11638571Y-13157857D01*
X11624286Y-13129286D01*
X11610000Y-13086429D01*
X11595714Y-13015000D01*
X11595714Y-12957857D01*
X11610000Y-12886429D01*
X11624286Y-12843571D01*
X11638571Y-12815000D01*
X11667143Y-12772143D01*
X11681428Y-12757857D01*
X11781428Y-12829286D02*
X11795714Y-12815000D01*
X11824286Y-12800714D01*
X11895714Y-12800714D01*
X11924286Y-12815000D01*
X11938571Y-12829286D01*
X11952857Y-12857857D01*
X11952857Y-12886429D01*
X11938571Y-12929286D01*
X11767143Y-13100714D01*
X11952857Y-13100714D01*
X12067143Y-12829286D02*
X12081428Y-12815000D01*
X12110000Y-12800714D01*
X12181428Y-12800714D01*
X12210000Y-12815000D01*
X12224286Y-12829286D01*
X12238571Y-12857857D01*
X12238571Y-12886429D01*
X12224286Y-12929286D01*
X12052857Y-13100714D01*
X12238571Y-13100714D01*
X12495714Y-12900714D02*
X12495714Y-13100714D01*
X12424286Y-12786429D02*
X12352857Y-13000714D01*
X12538571Y-13000714D01*
X12881428Y-13100714D02*
X12881428Y-12800714D01*
X13010000Y-13100714D02*
X13010000Y-12943571D01*
X12995714Y-12915000D01*
X12967143Y-12900714D01*
X12924286Y-12900714D01*
X12895714Y-12915000D01*
X12881428Y-12929286D01*
X13195714Y-13100714D02*
X13167143Y-13086429D01*
X13152857Y-13072143D01*
X13138571Y-13043571D01*
X13138571Y-12957857D01*
X13152857Y-12929286D01*
X13167143Y-12915000D01*
X13195714Y-12900714D01*
X13238571Y-12900714D01*
X13267143Y-12915000D01*
X13281428Y-12929286D01*
X13295714Y-12957857D01*
X13295714Y-13043571D01*
X13281428Y-13072143D01*
X13267143Y-13086429D01*
X13238571Y-13100714D01*
X13195714Y-13100714D01*
X13467143Y-13100714D02*
X13438571Y-13086429D01*
X13424286Y-13057857D01*
X13424286Y-12800714D01*
X13695714Y-13086429D02*
X13667143Y-13100714D01*
X13610000Y-13100714D01*
X13581428Y-13086429D01*
X13567143Y-13057857D01*
X13567143Y-12943571D01*
X13581428Y-12915000D01*
X13610000Y-12900714D01*
X13667143Y-12900714D01*
X13695714Y-12915000D01*
X13710000Y-12943571D01*
X13710000Y-12972143D01*
X13567143Y-13000714D01*
X13824286Y-13086429D02*
X13852857Y-13100714D01*
X13910000Y-13100714D01*
X13938571Y-13086429D01*
X13952857Y-13057857D01*
X13952857Y-13043571D01*
X13938571Y-13015000D01*
X13910000Y-13000714D01*
X13867143Y-13000714D01*
X13838571Y-12986429D01*
X13824286Y-12957857D01*
X13824286Y-12943571D01*
X13838571Y-12915000D01*
X13867143Y-12900714D01*
X13910000Y-12900714D01*
X13938571Y-12915000D01*
X14052857Y-13215000D02*
X14067143Y-13200714D01*
X14095714Y-13157857D01*
X14110000Y-13129286D01*
X14124286Y-13086429D01*
X14138571Y-13015000D01*
X14138571Y-12957857D01*
X14124286Y-12886429D01*
X14110000Y-12843571D01*
X14095714Y-12815000D01*
X14067143Y-12772143D01*
X14052857Y-12757857D01*
X6995000Y-13361000D02*
G75*
G03X6995000Y-13361000I-50000J0D01*
G01*
X7438571Y-13496714D02*
X7267143Y-13496714D01*
X7352857Y-13496714D02*
X7352857Y-13196714D01*
X7324286Y-13239571D01*
X7295714Y-13268143D01*
X7267143Y-13282429D01*
X7567143Y-13468143D02*
X7581428Y-13482429D01*
X7567143Y-13496714D01*
X7552857Y-13482429D01*
X7567143Y-13468143D01*
X7567143Y-13496714D01*
X7767143Y-13196714D02*
X7795714Y-13196714D01*
X7824286Y-13211000D01*
X7838571Y-13225286D01*
X7852857Y-13253857D01*
X7867143Y-13311000D01*
X7867143Y-13382429D01*
X7852857Y-13439571D01*
X7838571Y-13468143D01*
X7824286Y-13482429D01*
X7795714Y-13496714D01*
X7767143Y-13496714D01*
X7738571Y-13482429D01*
X7724286Y-13468143D01*
X7710000Y-13439571D01*
X7695714Y-13382429D01*
X7695714Y-13311000D01*
X7710000Y-13253857D01*
X7724286Y-13225286D01*
X7738571Y-13211000D01*
X7767143Y-13196714D01*
X8052857Y-13196714D02*
X8081428Y-13196714D01*
X8110000Y-13211000D01*
X8124286Y-13225286D01*
X8138571Y-13253857D01*
X8152857Y-13311000D01*
X8152857Y-13382429D01*
X8138571Y-13439571D01*
X8124286Y-13468143D01*
X8110000Y-13482429D01*
X8081428Y-13496714D01*
X8052857Y-13496714D01*
X8024286Y-13482429D01*
X8010000Y-13468143D01*
X7995714Y-13439571D01*
X7981428Y-13382429D01*
X7981428Y-13311000D01*
X7995714Y-13253857D01*
X8010000Y-13225286D01*
X8024286Y-13211000D01*
X8052857Y-13196714D01*
X8281428Y-13496714D02*
X8281428Y-13296714D01*
X8281428Y-13325286D02*
X8295714Y-13311000D01*
X8324286Y-13296714D01*
X8367143Y-13296714D01*
X8395714Y-13311000D01*
X8410000Y-13339571D01*
X8410000Y-13496714D01*
X8410000Y-13339571D02*
X8424286Y-13311000D01*
X8452857Y-13296714D01*
X8495714Y-13296714D01*
X8524286Y-13311000D01*
X8538571Y-13339571D01*
X8538571Y-13496714D01*
X8681428Y-13496714D02*
X8681428Y-13296714D01*
X8681428Y-13325286D02*
X8695714Y-13311000D01*
X8724286Y-13296714D01*
X8767143Y-13296714D01*
X8795714Y-13311000D01*
X8810000Y-13339571D01*
X8810000Y-13496714D01*
X8810000Y-13339571D02*
X8824286Y-13311000D01*
X8852857Y-13296714D01*
X8895714Y-13296714D01*
X8924286Y-13311000D01*
X8938571Y-13339571D01*
X8938571Y-13496714D01*
X9524286Y-13182429D02*
X9267143Y-13568143D01*
X9910000Y-13196714D02*
X9938571Y-13196714D01*
X9967143Y-13211000D01*
X9981428Y-13225286D01*
X9995714Y-13253857D01*
X10010000Y-13311000D01*
X10010000Y-13382429D01*
X9995714Y-13439571D01*
X9981428Y-13468143D01*
X9967143Y-13482429D01*
X9938571Y-13496714D01*
X9910000Y-13496714D01*
X9881428Y-13482429D01*
X9867143Y-13468143D01*
X9852857Y-13439571D01*
X9838571Y-13382429D01*
X9838571Y-13311000D01*
X9852857Y-13253857D01*
X9867143Y-13225286D01*
X9881428Y-13211000D01*
X9910000Y-13196714D01*
X10138571Y-13468143D02*
X10152857Y-13482429D01*
X10138571Y-13496714D01*
X10124286Y-13482429D01*
X10138571Y-13468143D01*
X10138571Y-13496714D01*
X10338571Y-13196714D02*
X10367143Y-13196714D01*
X10395714Y-13211000D01*
X10410000Y-13225286D01*
X10424286Y-13253857D01*
X10438571Y-13311000D01*
X10438571Y-13382429D01*
X10424286Y-13439571D01*
X10410000Y-13468143D01*
X10395714Y-13482429D01*
X10367143Y-13496714D01*
X10338571Y-13496714D01*
X10310000Y-13482429D01*
X10295714Y-13468143D01*
X10281428Y-13439571D01*
X10267143Y-13382429D01*
X10267143Y-13311000D01*
X10281428Y-13253857D01*
X10295714Y-13225286D01*
X10310000Y-13211000D01*
X10338571Y-13196714D01*
X10538571Y-13196714D02*
X10724286Y-13196714D01*
X10624286Y-13311000D01*
X10667143Y-13311000D01*
X10695714Y-13325286D01*
X10710000Y-13339571D01*
X10724286Y-13368143D01*
X10724286Y-13439571D01*
X10710000Y-13468143D01*
X10695714Y-13482429D01*
X10667143Y-13496714D01*
X10581428Y-13496714D01*
X10552857Y-13482429D01*
X10538571Y-13468143D01*
X10867143Y-13496714D02*
X10924286Y-13496714D01*
X10952857Y-13482429D01*
X10967143Y-13468143D01*
X10995714Y-13425286D01*
X11010000Y-13368143D01*
X11010000Y-13253857D01*
X10995714Y-13225286D01*
X10981428Y-13211000D01*
X10952857Y-13196714D01*
X10895714Y-13196714D01*
X10867143Y-13211000D01*
X10852857Y-13225286D01*
X10838571Y-13253857D01*
X10838571Y-13325286D01*
X10852857Y-13353857D01*
X10867143Y-13368143D01*
X10895714Y-13382429D01*
X10952857Y-13382429D01*
X10981428Y-13368143D01*
X10995714Y-13353857D01*
X11010000Y-13325286D01*
X11124286Y-13196714D02*
X11124286Y-13253857D01*
X11238571Y-13196714D02*
X11238571Y-13253857D01*
X11681428Y-13611000D02*
X11667143Y-13596714D01*
X11638571Y-13553857D01*
X11624286Y-13525286D01*
X11610000Y-13482429D01*
X11595714Y-13411000D01*
X11595714Y-13353857D01*
X11610000Y-13282429D01*
X11624286Y-13239571D01*
X11638571Y-13211000D01*
X11667143Y-13168143D01*
X11681428Y-13153857D01*
X11767143Y-13196714D02*
X11952857Y-13196714D01*
X11852857Y-13311000D01*
X11895714Y-13311000D01*
X11924286Y-13325286D01*
X11938571Y-13339571D01*
X11952857Y-13368143D01*
X11952857Y-13439571D01*
X11938571Y-13468143D01*
X11924286Y-13482429D01*
X11895714Y-13496714D01*
X11810000Y-13496714D01*
X11781428Y-13482429D01*
X11767143Y-13468143D01*
X12067143Y-13225286D02*
X12081428Y-13211000D01*
X12110000Y-13196714D01*
X12181428Y-13196714D01*
X12210000Y-13211000D01*
X12224286Y-13225286D01*
X12238571Y-13253857D01*
X12238571Y-13282429D01*
X12224286Y-13325286D01*
X12052857Y-13496714D01*
X12238571Y-13496714D01*
X12595714Y-13496714D02*
X12595714Y-13196714D01*
X12724286Y-13496714D02*
X12724286Y-13339571D01*
X12710000Y-13311000D01*
X12681428Y-13296714D01*
X12638571Y-13296714D01*
X12610000Y-13311000D01*
X12595714Y-13325286D01*
X12910000Y-13496714D02*
X12881428Y-13482429D01*
X12867143Y-13468143D01*
X12852857Y-13439571D01*
X12852857Y-13353857D01*
X12867143Y-13325286D01*
X12881428Y-13311000D01*
X12910000Y-13296714D01*
X12952857Y-13296714D01*
X12981428Y-13311000D01*
X12995714Y-13325286D01*
X13010000Y-13353857D01*
X13010000Y-13439571D01*
X12995714Y-13468143D01*
X12981428Y-13482429D01*
X12952857Y-13496714D01*
X12910000Y-13496714D01*
X13181428Y-13496714D02*
X13152857Y-13482429D01*
X13138571Y-13453857D01*
X13138571Y-13196714D01*
X13410000Y-13482429D02*
X13381428Y-13496714D01*
X13324286Y-13496714D01*
X13295714Y-13482429D01*
X13281428Y-13453857D01*
X13281428Y-13339571D01*
X13295714Y-13311000D01*
X13324286Y-13296714D01*
X13381428Y-13296714D01*
X13410000Y-13311000D01*
X13424286Y-13339571D01*
X13424286Y-13368143D01*
X13281428Y-13396714D01*
X13538571Y-13482429D02*
X13567143Y-13496714D01*
X13624286Y-13496714D01*
X13652857Y-13482429D01*
X13667143Y-13453857D01*
X13667143Y-13439571D01*
X13652857Y-13411000D01*
X13624286Y-13396714D01*
X13581428Y-13396714D01*
X13552857Y-13382429D01*
X13538571Y-13353857D01*
X13538571Y-13339571D01*
X13552857Y-13311000D01*
X13581428Y-13296714D01*
X13624286Y-13296714D01*
X13652857Y-13311000D01*
X13767143Y-13611000D02*
X13781428Y-13596714D01*
X13810000Y-13553857D01*
X13824286Y-13525286D01*
X13838571Y-13482429D01*
X13852857Y-13411000D01*
X13852857Y-13353857D01*
X13838571Y-13282429D01*
X13824286Y-13239571D01*
X13810000Y-13211000D01*
X13781428Y-13168143D01*
X13767143Y-13153857D01*
M02*
