(module breadboard910 (layer F.Cu) (tedit 5E3869C5)
  (fp_text reference REF** (at 0 0.5) (layer F.SilkS)
    (effects (font (size 1 1) (thickness 0.15)))
  )
  (fp_text value breadboard910 (at 0 -0.5) (layer F.Fab)
    (effects (font (size 1 1) (thickness 0.15)))
  )
  (pad 1 thru_hole circle (at -17.78 -7.62) (size 1.524 1.524) (drill 0.762) (layers *.Cu *.Mask))
  (pad 2 thru_hole circle (at -15.24 -7.62) (size 1.524 1.524) (drill 0.762) (layers *.Cu *.Mask))
  (pad 3 thru_hole circle (at -12.7 -7.62) (size 1.524 1.524) (drill 0.762) (layers *.Cu *.Mask))
  (pad 4 thru_hole circle (at -10.16 -7.62) (size 1.524 1.524) (drill 0.762) (layers *.Cu *.Mask))
  (pad 5 thru_hole circle (at -10.16 -5.08) (size 1.524 1.524) (drill 0.762) (layers *.Cu *.Mask))
  (pad 6 thru_hole circle (at -10.16 -2.54) (size 1.524 1.524) (drill 0.762) (layers *.Cu *.Mask))
  (pad 7 thru_hole circle (at -10.16 0) (size 1.524 1.524) (drill 0.762) (layers *.Cu *.Mask))
  (pad 8 thru_hole circle (at -10.16 2.54) (size 1.524 1.524) (drill 0.762) (layers *.Cu *.Mask))
  (pad 9 thru_hole circle (at -12.7 2.54) (size 1.524 1.524) (drill 0.762) (layers *.Cu *.Mask))
  (pad 10 thru_hole circle (at -15.24 2.54) (size 1.524 1.524) (drill 0.762) (layers *.Cu *.Mask))
  (pad 11 thru_hole circle (at -17.78 2.54) (size 1.524 1.524) (drill 0.762) (layers *.Cu *.Mask))
  (pad 12 thru_hole circle (at -17.78 0) (size 1.524 1.524) (drill 0.762) (layers *.Cu *.Mask))
  (pad 13 thru_hole circle (at -17.78 -2.54) (size 1.524 1.524) (drill 0.762) (layers *.Cu *.Mask))
  (pad 14 thru_hole circle (at -17.78 -5.08) (size 1.524 1.524) (drill 0.762) (layers *.Cu *.Mask))
  (pad 15 thru_hole circle (at -15.24 -5.08) (size 1.524 1.524) (drill 0.762) (layers *.Cu *.Mask))
  (pad 16 thru_hole circle (at -12.7 -5.08) (size 1.524 1.524) (drill 0.762) (layers *.Cu *.Mask))
  (pad 17 thru_hole circle (at -12.7 -2.54) (size 1.524 1.524) (drill 0.762) (layers *.Cu *.Mask))
  (pad 18 thru_hole circle (at -15.24 -2.54) (size 1.524 1.524) (drill 0.762) (layers *.Cu *.Mask))
  (pad 19 thru_hole circle (at -15.24 0) (size 1.524 1.524) (drill 0.762) (layers *.Cu *.Mask))
  (pad 20 thru_hole circle (at -12.7 0) (size 1.524 1.524) (drill 0.762) (layers *.Cu *.Mask))
)
